<?xml version="1.0" encoding="UTF-8" standalone="no"?>
<svg width="12px" height="15px" viewBox="0 0 12 15" version="1.1" xmlns="http://www.w3.org/2000/svg" xmlns:xlink="http://www.w3.org/1999/xlink">
    <defs></defs>
    <g id="Home-Page" stroke="none" stroke-width="1" fill="none" fill-rule="evenodd">
        <g id="LMADVOKAT-HOME-PAGE" transform="translate(-251.000000, -11.000000)" fill="#FFFFFF">
            <g id="Navigation" transform="translate(0.000000, -0.180990)">
                <g id="info" transform="translate(251.445312, 10.532292)">
                    <path d="M5.78217672,8.86639447 C6.47146349,8.86639447 7.0599495,8.62254667 7.54765241,8.13484377 C8.03535531,7.64714086 8.27920311,7.05865485 8.27920311,6.36936808 C8.27920311,5.68008131 8.03535531,5.0915953 7.54765241,4.6038924 C7.0599495,4.11618949 6.47146349,3.8723417 5.78217672,3.8723417 C5.09288995,3.8723417 4.50440394,4.11618949 4.01670104,4.6038924 C3.52899813,5.0915953 3.28515034,5.68008131 3.28515034,6.36936808 C3.28515034,7.05865485 3.52899813,7.64714086 4.01670104,8.13484377 C4.50440394,8.62254667 5.09288995,8.86639447 5.78217672,8.86639447 L5.78217672,8.86639447 Z M5.78217672,0.907122866 C6.51047973,0.913625572 7.21276137,1.05993425 7.88904273,1.34605329 C8.56532409,1.63217232 9.14405619,2.01582619 9.62525639,2.49702638 C10.1064566,2.97822658 10.4933618,3.55695868 10.7859835,4.23324004 C11.0721025,4.89651599 11.2151599,5.57928982 11.2151599,6.281582 C11.2216626,6.98387418 11.1143696,7.69916104 10.8932776,8.42746405 C10.6721856,9.15576705 10.3925735,9.82553566 10.0544328,10.43679 C9.33913521,11.7308283 8.54256575,12.8135125 7.66470052,13.6848751 C6.78683529,14.5497349 6.17559015,14.9821583 5.83094677,14.9821583 C5.48630338,14.9821583 4.96284345,14.6505253 4.26055127,13.9872494 C3.03153995,12.8297678 2.07240529,11.5520054 1.38311852,10.1539237 C0.69383175,8.75584204 0.349193533,7.48783351 0.349193533,6.34986006 C0.349193533,5.60855165 0.492250906,4.9030187 0.778369943,4.23324004 C1.07099169,3.55695868 1.45789685,2.97822658 1.93909705,2.49702638 C2.42029725,2.01582619 2.99902935,1.63217232 3.67531071,1.34605329 C4.35159207,1.05993425 5.05387372,0.913625572 5.78217672,0.907122866 L5.78217672,0.907122866 Z" id="location"></path>
                </g>
            </g>
        </g>
    </g>
</svg>