<svg xmlns="http://www.w3.org/2000/svg" xmlns:xlink="http://www.w3.org/1999/xlink" preserveAspectRatio="xMidYMid" width="45" height="38" viewBox="0 0 45 38">
  <path d="M21.623,0.711 C20.919,0.711 20.146,1.071 19.387,1.753 L10.810,9.473 C10.406,9.837 10.002,10.301 9.607,10.854 L3.291,10.854 C1.485,10.854 0.016,12.326 0.016,14.136 L0.016,24.409 C0.016,26.213 1.485,27.681 3.291,27.681 L9.604,27.681 C9.997,28.237 10.401,28.703 10.810,29.069 L19.388,36.792 C20.146,37.473 20.919,37.833 21.622,37.833 C22.300,37.833 22.884,37.507 23.266,36.915 C23.600,36.398 23.769,35.701 23.769,34.844 L23.769,3.701 C23.769,1.496 22.660,0.711 21.623,0.711 ZM22.269,34.844 C22.269,35.583 22.104,35.949 22.006,36.101 C21.874,36.305 21.738,36.333 21.622,36.333 C21.472,36.333 21.051,36.269 20.391,35.676 L11.812,27.952 C11.418,27.600 11.020,27.118 10.628,26.520 C10.490,26.308 10.254,26.181 10.001,26.181 L3.291,26.181 C2.312,26.181 1.516,25.386 1.516,24.409 L1.516,14.136 C1.516,13.153 2.312,12.354 3.291,12.354 L10.001,12.354 C10.252,12.354 10.486,12.228 10.625,12.019 C11.023,11.421 11.423,10.939 11.814,10.588 L20.391,2.868 C21.051,2.275 21.472,2.211 21.623,2.211 C22.238,2.211 22.269,3.452 22.269,3.701 L22.269,34.844 ZM35.373,8.787 C39.241,15.256 39.241,23.290 35.373,29.756 C35.232,29.991 34.984,30.121 34.729,30.121 C34.598,30.121 34.465,30.087 34.344,30.014 C33.989,29.802 33.873,29.341 34.086,28.986 C37.670,22.995 37.670,15.551 34.086,9.557 C33.873,9.201 33.989,8.741 34.345,8.529 C34.699,8.316 35.161,8.431 35.373,8.787 ZM29.778,11.663 C32.583,16.359 32.583,22.190 29.777,26.881 C29.637,27.116 29.388,27.246 29.133,27.246 C29.002,27.246 28.870,27.212 28.749,27.140 C28.394,26.927 28.277,26.467 28.490,26.112 C31.012,21.895 31.012,16.654 28.490,12.433 C28.277,12.077 28.394,11.617 28.749,11.404 C29.104,11.192 29.565,11.307 29.778,11.663 ZM39.672,35.799 C39.528,36.021 39.287,36.143 39.041,36.143 C38.901,36.143 38.761,36.104 38.635,36.024 C38.287,35.800 38.186,35.335 38.410,34.987 C44.553,25.441 44.553,13.104 38.410,3.558 C38.186,3.210 38.287,2.745 38.635,2.521 C38.984,2.299 39.448,2.398 39.672,2.746 C46.132,12.785 46.132,25.759 39.672,35.799 Z" fill="#626262" fill-rule="evenodd"/>
</svg>
