<?xml version="1.0" encoding="utf-8"?>
<!-- Generator: Avocode 2.4.3-3630f5a - http://avocode.com -->
<svg height="20" width="16" xmlns:xlink="http://www.w3.org/1999/xlink" xmlns="http://www.w3.org/2000/svg" viewBox="0 0 16 20">
    <path fill="#4c6373" fill-rule="evenodd" d="M 5.4 20 C 4.48 20 3.56 19.71 2.76 19.11 C 0.83 17.67 0.33 14.94 1.57 12.84 C 1.6 12.76 1.65 12.69 1.71 12.6 C 1.71 12.6 9.43 1.49 9.43 1.49 C 10.6 -0.14 12.83 -0.5 14.41 0.69 C 15.95 1.85 16.35 4.06 15.32 5.73 C 15.32 5.73 15.3 5.71 15.3 5.71 C 15.19 5.92 14.96 6.25 14.54 6.85 C 14.54 6.85 8.38 15.72 8.38 15.72 C 8.37 15.73 8.37 15.74 8.36 15.75 C 8.36 15.75 8.33 15.8 8.33 15.8 C 7.9 16.42 7.3 16.8 6.62 16.91 C 5.94 17.03 5.25 16.86 4.69 16.44 C 3.58 15.6 3.3 13.97 4.06 12.78 C 4.06 12.77 4.06 12.76 4.06 12.76 C 4.09 12.71 4.11 12.67 4.14 12.63 C 4.14 12.63 9.52 4.87 9.52 4.87 C 9.67 4.65 9.96 4.6 10.17 4.76 C 10.38 4.91 10.42 5.22 10.27 5.43 C 10.27 5.43 4.9 13.18 4.9 13.18 C 4.89 13.21 4.87 13.24 4.85 13.27 C 4.34 14.04 4.51 15.11 5.24 15.66 C 5.6 15.93 6.04 16.04 6.47 15.96 C 6.91 15.89 7.29 15.64 7.55 15.27 C 7.55 15.27 7.58 15.22 7.58 15.22 C 7.58 15.22 7.6 15.18 7.6 15.18 C 7.63 15.14 7.65 15.11 7.68 15.08 C 7.68 15.08 8.17 14.38 8.17 14.38 C 9.7 12.17 14.35 5.48 14.54 5.2 C 15.31 3.96 15.01 2.33 13.87 1.47 C 12.69 0.59 11.04 0.86 10.18 2.06 C 10.18 2.06 2.46 13.17 2.46 13.17 C 2.45 13.2 2.44 13.23 2.42 13.25 C 1.36 14.93 1.75 17.16 3.31 18.33 C 4.83 19.47 6.96 19.19 8.16 17.7 C 8.18 17.67 8.21 17.64 8.23 17.62 C 8.25 17.6 8.26 17.58 8.26 17.57 C 8.27 17.56 8.28 17.55 8.28 17.54 C 8.28 17.54 14.56 8.51 14.56 8.51 C 14.71 8.3 15 8.25 15.21 8.4 C 15.42 8.56 15.46 8.86 15.31 9.08 C 15.31 9.08 9.05 18.08 9.05 18.08 C 8.97 18.25 8.83 18.39 8.83 18.39 C 8.81 18.41 8.79 18.42 8.76 18.44 C 7.88 19.46 6.65 20 5.4 20 Z" />
</svg>