<?xml version="1.0" encoding="utf-8"?>
<!-- Generator: Avocode 2.4.3-3630f5a - http://avocode.com -->
<svg height="20" width="20" xmlns:xlink="http://www.w3.org/1999/xlink" xmlns="http://www.w3.org/2000/svg" viewBox="0 0 20 20">
    <path fill="#3e6372" fill-rule="evenodd" d="M 19.33 17.33 C 19.33 17.33 17.33 17.33 17.33 17.33 C 17.33 17.33 17.33 19.33 17.33 19.33 C 17.33 19.7 17.04 20 16.67 20 C 16.3 20 16 19.7 16 19.33 C 16 19.33 16 17.33 16 17.33 C 16 17.33 14 17.33 14 17.33 C 13.63 17.33 13.33 17.03 13.33 16.66 C 13.33 16.3 13.63 16 14 16 C 14 16 16 16 16 16 C 16 16 16 14 16 14 C 16 13.63 16.3 13.33 16.67 13.33 C 17.04 13.33 17.33 13.63 17.33 14 C 17.33 14 17.33 16 17.33 16 C 17.33 16 19.33 16 19.33 16 C 19.7 16 20 16.3 20 16.66 C 20 17.03 19.7 17.33 19.33 17.33 Z M 10.94 11.23 C 12.08 11.68 13.09 12.39 13.9 13.28 C 13.56 13.57 13.24 13.9 12.98 14.27 C 11.75 12.89 9.99 12 8 12 C 4.32 12 1.33 14.98 1.33 18.67 C 1.33 18.67 1.33 20 1.33 20 C 1.33 20 0 20 0 20 C 0 20 0 18.67 0 18.67 C 0 15.29 2.1 12.4 5.06 11.23 C 3.24 10.2 2 8.25 2 6 C 2 2.69 4.69 0 8 0 C 11.31 0 14 2.69 14 6 C 14 8.25 12.76 10.2 10.94 11.23 Z M 8 1.33 C 5.42 1.33 3.33 3.42 3.33 6 C 3.33 8.58 5.42 10.67 8 10.67 C 10.58 10.67 12.67 8.58 12.67 6 C 12.67 3.42 10.58 1.33 8 1.33 Z" />
</svg>