<?xml version="1.0" encoding="utf-8"?>
<!-- Generator: Avocode 2.4.3-3630f5a - http://avocode.com -->
<svg height="20" width="19" xmlns:xlink="http://www.w3.org/1999/xlink" xmlns="http://www.w3.org/2000/svg" viewBox="0 0 19 20">
    <path fill="#adbdc7" fill-rule="evenodd" d="M 0.07 4.25 C 0.07 6.32 2.08 8.01 4.63 8.18 C 4.63 8.18 7.36 9.7 7.36 9.7 C 7.36 9.7 6.02 8.13 6.02 8.13 C 6.59 8.04 7.13 7.87 7.62 7.64 C 7.46 7.2 7.36 6.72 7.36 6.23 C 7.36 4.65 8.25 3.28 9.56 2.56 C 8.76 1.22 7.05 0.29 5.05 0.29 C 2.3 0.29 0.07 2.06 0.07 4.25 Z M 12.24 10.27 C 10.04 10.27 8.25 8.53 8.25 6.38 C 8.25 4.22 10.04 2.48 12.24 2.48 C 14.44 2.48 16.22 4.22 16.22 6.38 C 16.22 8.53 14.44 10.27 12.24 10.27 Z M 6.33 18.52 C 6.66 17.16 7.63 13.95 8.26 13.17 C 9.11 11.64 11.55 11.71 11.55 11.71 C 11.55 11.71 13.48 11.71 13.48 11.71 C 13.48 11.71 15.27 11.65 16.3 13.1 C 16.85 13.87 17.71 16.85 18.07 18.35 C 18.13 18.59 18.15 18.72 18.15 18.72 C 18.29 19.28 17.94 19.73 17.35 19.73 C 17.35 19.73 7.08 19.73 7.08 19.73 C 6.5 19.73 6.14 19.28 6.29 18.73 C 6.29 18.73 6.33 18.52 6.33 18.52 Z" />
</svg>