<?xml version="1.0" encoding="utf-8"?>
<!-- Generator: Avocode 2.4.3-3630f5a - http://avocode.com -->
<svg height="20" width="14" xmlns:xlink="http://www.w3.org/1999/xlink" xmlns="http://www.w3.org/2000/svg" viewBox="0 0 14 20">
    <path fill="#4b6272" fill-rule="evenodd" d="M -0.01 6.67 C -0.01 2.98 3.07 0 6.86 0 C 10.66 0 13.74 2.98 13.74 6.67 C 13.74 10.35 6.86 20 6.86 20 C 6.86 20 -0.01 10.35 -0.01 6.67 Z M 6.86 1.33 C 3.83 1.33 1.37 3.73 1.37 6.67 C 1.37 8.72 4.39 13.9 6.86 17.6 C 9.34 13.9 12.36 8.72 12.36 6.67 C 12.36 3.73 9.89 1.33 6.86 1.33 Z M 4.11 6.66 C 4.11 5.19 5.34 4 6.86 4 C 8.38 4 9.61 5.19 9.61 6.66 C 9.61 8.14 8.38 9.33 6.86 9.33 C 5.34 9.33 4.11 8.14 4.11 6.66 Z M 6.86 8 C 7.62 8 8.24 7.4 8.24 6.66 C 8.24 5.93 7.62 5.33 6.86 5.33 C 6.1 5.33 5.49 5.93 5.49 6.66 C 5.49 7.4 6.1 8 6.86 8 Z" />
</svg>