<?xml version="1.0" encoding="utf-8"?>
<!-- Generator: Avocode 2.4.3-3630f5a - http://avocode.com -->
<svg height="19" width="20" xmlns:xlink="http://www.w3.org/1999/xlink" xmlns="http://www.w3.org/2000/svg" viewBox="0 0 20 19">
    <path fill="#9bb1bc" fill-rule="evenodd" d="M 12.35 3.29 C 12.35 4.68 11.21 5.8 9.79 5.8 C 8.37 5.8 7.22 4.68 7.22 3.29 C 7.22 1.9 8.37 0.78 9.79 0.78 C 11.21 0.78 12.35 1.9 12.35 3.29 Z M 2.19 14.58 C 1.13 14.58 0.26 15.43 0.26 16.47 C 0.26 17.51 1.13 18.35 2.19 18.35 C 3.25 18.35 4.11 17.51 4.11 16.47 C 4.11 15.43 3.25 14.58 2.19 14.58 Z M 9.79 14.58 C 8.73 14.58 7.86 15.43 7.86 16.47 C 7.86 17.51 8.73 18.35 9.79 18.35 C 10.85 18.35 11.71 17.51 11.71 16.47 C 11.71 15.43 10.85 14.58 9.79 14.58 Z M 17.39 14.58 C 16.33 14.58 15.46 15.43 15.46 16.47 C 15.46 17.51 16.33 18.35 17.39 18.35 C 18.45 18.35 19.31 17.51 19.31 16.47 C 19.31 15.43 18.45 14.58 17.39 14.58 Z M 17.33 10.01 C 17.33 10.01 10.26 10.01 10.26 10.01 C 10.26 10.01 10.26 7.2 10.26 7.2 C 10.26 6.94 10.05 6.74 9.79 6.74 C 9.53 6.74 9.32 6.94 9.32 7.2 C 9.32 7.2 9.32 10.01 9.32 10.01 C 9.32 10.01 2.19 10.01 2.19 10.01 C 1.93 10.01 1.72 10.21 1.72 10.46 C 1.72 10.46 1.72 13.23 1.72 13.23 C 1.72 13.48 1.93 13.69 2.19 13.69 C 2.45 13.69 2.66 13.48 2.66 13.23 C 2.66 13.23 2.66 10.92 2.66 10.92 C 2.66 10.92 9.32 10.92 9.32 10.92 C 9.32 10.92 9.32 13.27 9.32 13.27 C 9.32 13.53 9.53 13.73 9.79 13.73 C 10.05 13.73 10.26 13.53 10.26 13.27 C 10.26 13.27 10.26 10.92 10.26 10.92 C 10.26 10.92 16.86 10.92 16.86 10.92 C 16.86 10.92 16.86 13.23 16.86 13.23 C 16.86 13.48 17.07 13.69 17.33 13.69 C 17.59 13.69 17.8 13.48 17.8 13.23 C 17.8 13.23 17.8 10.46 17.8 10.46 C 17.8 10.21 17.59 10.01 17.33 10.01 Z" />
</svg>