<?xml version="1.0" encoding="utf-8"?>
<!-- Generator: Adobe Illustrator 19.1.0, SVG Export Plug-In . SVG Version: 6.00 Build 0)  -->
<svg version="1.1" id="Layer_1" xmlns="http://www.w3.org/2000/svg" xmlns:xlink="http://www.w3.org/1999/xlink" x="0px" y="0px"
	 viewBox="-298 388 15 18" style="enable-background:new -298 388 15 18;" xml:space="preserve">
<style type="text/css">
	.st0{fill:#BAD3DB;}
</style>
<path class="st0" d="M-284.4,394.3l-6.9,9.5l-6.7,2.2l0.4-6.4c0,0,0.1-0.1,0.1-0.2l6.6-9.2c0.9,0,2.3,0.5,3.7,1.4
	C-285.8,392.4-284.7,393.5-284.4,394.3z M-291.7,403.2c-0.8-1-1.9-1-1.9-1c-0.5-1.1-1.8-1.4-1.8-1.4c-0.3-0.8-1-1.1-1.5-1.3
	c0,0.1,0,0.2,0,0.2l-0.2,4.4l0.9,0.6L-291.7,403.2z M-285.5,389.3c-2.2-1.4-3.4-1.6-4.2-0.6c0,0.1-0.4,0.5-0.8,0.9
	c0.9,0,2.3,0.5,3.7,1.4c1.4,0.9,2.4,2,2.8,2.8c0.4-0.5,0.7-0.9,0.7-1C-282.5,391.7-283.2,390.8-285.5,389.3z"/>
</svg>
