{
  "source": {
    "type": "bower",
    "name": "angular-moment",
    "version": "1.0.0-beta.2"
  },
  "destination": {
    "atmospherePackageName": "angular-moment",
    "atmosphereOrganizationName": "correpw",
    "summary": "angular-moment version 1.0.0-beta.2",
    "git": "https://github.com/urish/angular-moment",
    "documentation": null,
    "versionsFrom": "METEOR@1.2.1",
    "filesToAdd": [
      {"name": "angular-moment.js", "platforms": ["client"]}
    ],
    "use": [
      {"name": "angular:angular@1.3.15_1", "platforms": ["client"]},
      {"name" : "momentjs:moment@2.10.6"}
    ]
  }
}