<?xml version="1.0" encoding="utf-8"?>
<!-- Generator: Adobe Illustrator 16.0.0, SVG Export Plug-In . SVG Version: 6.00 Build 0)  -->
<!DOCTYPE svg PUBLIC "-//W3C//DTD SVG 1.1//EN" "http://www.w3.org/Graphics/SVG/1.1/DTD/svg11.dtd">
<svg version="1.1" id="Layer_1" xmlns="http://www.w3.org/2000/svg" xmlns:xlink="http://www.w3.org/1999/xlink" x="0px" y="0px"
	 width="37.511px" height="64.758px" viewBox="0 0 37.511 64.758" enable-background="new 0 0 37.511 64.758" xml:space="preserve">
<g>
	<path fill="#FFFFFF" d="M18.756,33.423c9.219,0,16.713-7.494,16.713-16.708C35.469,7.497,27.975,0,18.756,0
		C9.539,0,2.043,7.497,2.043,16.715C2.043,25.929,9.539,33.423,18.756,33.423z M18.756,9.795c3.816,0,6.92,3.104,6.92,6.92
		c0,3.812-3.104,6.917-6.92,6.917c-3.812,0-6.92-3.104-6.92-6.917C11.836,12.898,14.943,9.795,18.756,9.795z"/>
	<path fill="#FFFFFF" d="M25.518,47.057c3.402-0.775,6.684-2.121,9.705-4.02c2.287-1.441,2.977-4.466,1.535-6.753
		c-1.439-2.291-4.461-2.98-6.752-1.539c-6.846,4.305-15.66,4.303-22.502,0c-2.291-1.441-5.312-0.752-6.75,1.539
		C-0.688,38.573,0,41.596,2.287,43.037c3.021,1.896,6.303,3.244,9.705,4.02L2.648,56.4c-1.91,1.912-1.91,5.012,0.002,6.924
		c0.957,0.955,2.209,1.434,3.461,1.434c1.254,0,2.508-0.479,3.465-1.434l9.178-9.182l9.186,9.182c1.91,1.912,5.01,1.912,6.922,0
		c1.914-1.912,1.914-5.014,0-6.924L25.518,47.057z"/>
</g>
</svg>
