<?xml version="1.0" encoding="UTF-8" standalone="no"?>
<svg width="48px" height="36px" viewBox="0 0 48 36" version="1.1" xmlns="http://www.w3.org/2000/svg" xmlns:xlink="http://www.w3.org/1999/xlink">
    <defs></defs>
    <g id="Page-1" stroke="none" stroke-width="1" fill="none" fill-rule="evenodd" opacity="0.8">
        <g id="hamburger-(1)" fill="#000000">
            <rect id="Rectangle-path" x="0" y="0" width="48" height="7"></rect>
            <rect id="Rectangle-path" x="0" y="14" width="48" height="7"></rect>
            <rect id="Rectangle-path" x="0" y="29" width="48" height="7"></rect>
        </g>
    </g>
</svg>